<?xml version="1.0" encoding="utf-8"?>
<!-- Generator: Adobe Illustrator 24.0.1, SVG Export Plug-In . SVG Version: 6.00 Build 0)  -->
<svg version="1.1" xmlns="http://www.w3.org/2000/svg" viewBox="0 0 40 40" width="40">
<path fill="#45B170" d="M0.1,39.6L5,23.1C5,23,5,23,5.1,22.9l9.7-2.8c0.2-0.1,0.2-0.3,0-0.4l-9.7-2.8C5,17,5,17,5,16.9L0.1,0.4
	c0-0.2,0.1-0.3,0.3-0.2l39.2,19.6c0.1,0.1,0.1,0.3,0,0.4L0.4,39.8C0.3,39.9,0.1,39.7,0.1,39.6z"/>
</svg>
